# generated from	generated from ===> Text_Gss_EFA_20151106_with new land reallocation	
#-- Anfangsinvestitionen -----		
		
FarmName	8	
		
!              Investition	Anzahl	Kapazitaet
		
BEEF4	1	131
		
DAIRY4	1	259
		
MACHINERY3	1	100
		
MACHINERY6	1	300
