#	generated from ===> Saxony VG8 2015.12.21_calibration		
#	-- Anfangsinvestitionen --	---	
			
FarmName	HE-GE5		
			
!	Investition	Anzahl	Kapazitaet
			
	INTCATTLE4	1	16
			
	EXTCATTLE2	1	98
			
	MACHINERY3	2	200
			
	MACHINERY5	1	50
			
	MACHINERY7	1	15
