#	generated from ===> Saxony VG8 2015.12.21_calibration		
#	-- Anfangsinvestitionen --	---	
			
FarmName	HE-GE2		
			
!	Investition	Anzahl	Kapazitaet
			
	SOWS5	1	271
			
	MACHINERY6	1	30
			
	MACHINERY7	1	15
