#	generated from ===> Saxony VG8 2015.06.15_ZF revised															
#	--------- PRODUCTS --------															
																
				premiumName	Basic_paym	###	Name of row where initPrem has to be written in MIP-Matrix									
																
!	id	type	group	name	price	varCost	priceFlex	changeRate	producedByFarmType	LUperPlace	premium	initPrem	priceSupp	refPrem	Xyears	grossMargin
																
	0	0	-1	ST_BORROW_CAP	-0.08	0	0	1	NON	0	false	-	false	-	-	-0.08
	1	1	-1	EC_INTEREST	0.04	0	0	1	NON	0	false	-	false	-	-	0.04
	2	2	-1	V_HIRED_LABOUR_H	-12.65	0	0	1.005	NON	0	false	-	false	-	-	-12.65
	3	3	-1	V_OFF_FARM_LAB	8.5	0	0	1.005	NON	0	false	-	false	-	-	8.5
	4	4	-1	AGRI_SERVICES	-307	0	0	1	NON	0	false	-	false	-	-	-307
	5	4	0	WINTER_BARLEY	0	172.4	0	1	ARABLE	0	true	333	true	-	-	-172.4
	6	4	0	WINTER_WHEAT	0	131.7	0	1	ARABLE	0	true	333	true	-	-	-131.7
	7	4	0	RAPE_SEED	0	162.2	0	1	ARABLE	0	true	333	true	-	-	-162.2
	8	4	0	SUGAR_BEETS	0	420.8	0	1	ARABLE	0	true	333	true	-	-	-420.8
	9	4	0	PROTEIN_PLANTS	0	199	0	1	ARABLE	0	true	333	true	-	-	-199
	10	4	0	MAIZE_SILAGE	0	320.9	0	1	ARABLE	0	true	333	true	-	-	-320.9
	11	4	0	MAIZE	0	264.2	0	1	ARABLE	0	true	333	true	-	-	-264.2
	12	4	0	SUMMER_BARLEY	0	140.8	0	1	ARABLE	0	true	333	true	-	-	-140.8
	13	4	0	LUZERNE	0	266.7	0	1	ARABLE	0	true	333	true	-	-	-266.7
	14	4	0	BRACHLAND	0	12.5	0	1	ARABLE	0	true	333	true	-	-	-12.5
	15	4	0	FLOWER_STRIP	0	106.2	0	1	ARABLE	0	true	333	true	-	-	-106.2
	16	4	0	ZWISCHENFRUCHT	0	20	0	1	ARABLE	0	false	0	false	-	-	-20
	17	4	0	UNTERSAAT	0	10	0	1	ARABLE	0	false	0	false	-	-	-10
	18	4	0	INT_GRASS	0	213.8	0	1	GRASSLAND	0	true	333	true	-	-	-213.8
	19	4	0	EXT_GRASS	0	96.1	0	1	GRASSLAND	0	true	333	true	-	-	-96.1
	20	4	0	IDLE_GRASS	0	93.6	0	1	GRASSLAND	0	true	333	true	-	-	-93.6
	21	4	1	SOWS	1469.5	1114.5	0	1	PIG/POULTRY	0	false	-	false	-	-	355
	22	4	2	FATTENING_PIGS	458.5	436.5	0	1	PIG/POULTRY	0	false	-	false	-	-	22
	23	4	3	BEEF_CATTLE	1583.5	975.5	0	1	GRASSLAND	0	false	-	false	-	-	608
	24	4	4	SUCKLER_COWS	751.67	51.67	0	1	GRASSLAND	0	false	-	false	-	-	700
	25	4	5	DAIRY_COWS	2822.6	802.6	0	1	GRASSLAND	0	false	-	false	-	-	2020
	26	4	6	HEIFER_DAIRY	0	281	0	1	GRASSLAND	0	false	-	false	-	-	-281
	27	4	6	HEIFER_SUCKLER	0	299	0	1	GRASSLAND	0	false	-	false	-	-	-299
	28	4	-1	SELL_PROTEIN_PLANTS	20	0	0	1	ARABLE	0	false	-	false	-	-	20
	29	4	-1	SELL_WINTER_BARLEY	15	0	0	1	ARABLE	0	false	-	false	-	-	15
	30	4	-1	SELL_MAIZE	16.5	0	0	1	ARABLE	0	false	-	false	-	-	16.5
	31	4	-1	SELL_WHEAT	17.18	0	0	1	ARABLE	0	false	-	false	-	-	17.18
	32	4	-1	SELL_RAPE	38.5	0	0	1	ARABLE	0	false	-	false	-	-	38.5
	33	4	-1	SELL_SUGAR_BEETS	3.72	0	0	1	ARABLE	0	false	-	false	-	-	3.72
	34	4	-1	SELL_SUMMER_BARLEY	15	0	0	1	ARABLE	0	false	-	false	-	-	15
	35	4	-1	BEEF_MAIZE_SILAGE	0	0	0	1	GRASSLAND	0	false	-	false	-	-	0
	36	4	-1	BEEF_GRASSILAGE	0	0	0	1	GRASSLAND	0	false	-	false	-	-	0
	37	4	-1	BEEF_FIELD_BEAN	0	0	0	1	GRASSLAND	0	false	-	false	-	-	0
	38	4	-1	BEEF_BARLEY	0	0	0	1	GRASSLAND	0	false	-	false	-	-	0
	39	4	-1	BEEF_ALFALFA	0	0	0	1	GRASSLAND	0	false	-	false	-	-	0
	40	4	-1	BEEF_SOYA	-40	0	0	1	GRASSLAND	0	false	-	false	-	-	-40
	41	4	-1	BEEF_MAIZE	0	0	0	1	GRASSLAND	0	false	-	false	-	-	0
	42	4	-1	SUCKLER_GRASSILAGE	0	0	0	1	GRASSLAND	0	false	-	false	-	-	0
	43	4	-1	SUCKLER_MOWING_MEADOW	0	0	0	1	GRASSLAND	0	false	-	false	-	-	0
	44	4	-1	HEIFER_SUCK_GRASSILAGE	0	0	0	1	GRASSLAND	0	false	-	false	-	-	0
	45	4	-1	HEIFER_SUCK_MOWING_MEADOW	0	0	0	1	GRASSLAND	0	false	-	false	-	-	0
	46	4	-1	HEIFER_DAIRY_MAIZE_SILAGE	0	0	0	1	GRASSLAND	0	false	-	false	-	-	0
	47	4	-1	HEIFER_DAIRY_GRASSILAGE	0	0	0	1	GRASSLAND	0	false	-	false	-	-	0
	48	4	-1	HEIFER_DAIRY_FIELD_BEAN	0	0	0	1	GRASSLAND	0	false	-	false	-	-	0
	49	4	-1	HEIFER_DAIRY_BARLEY	0	0	0	1	GRASSLAND	0	false	-	false	-	-	0
	50	4	-1	HEIFER_DAIRY_ALFALFA	0	0	0	1	GRASSLAND	0	false	-	false	-	-	0
	51	4	-1	HEIFER_DAIRY_SOYA	-40	0	0	1	GRASSLAND	0	false	-	false	-	-	-40
	52	4	-1	HEIFER_DAIRY_MAIZE	0	0	0	1	GRASSLAND	0	false	-	false	-	-	0
	53	4	-1	DAIRY_MAIZE_SILAGE	0	0	0	1	GRASSLAND	0	false	-	false	-	-	0
	54	4	-1	DAIRY_GRASSILAGE	0	0	0	1	GRASSLAND	0	false	-	false	-	-	0
	55	4	-1	DAIRY_FIELD_BEAN	0	0	0	1	GRASSLAND	0	false	-	false	-	-	0
	56	4	-1	DAIRY_BARLEY	0	0	0	1	GRASSLAND	0	false	-	false	-	-	0
	57	4	-1	DAIRY_ALFALFA	0	0	0	1	GRASSLAND	0	false	-	false	-	-	0
	58	4	-1	DAIRY_SOYA	-40	0	0	1	GRASSLAND	0	false	-	false	-	-	-40
	59	4	-1	DAIRY_MAIZE	0	0	0	1	GRASSLAND	0	false	-	false	-	-	0
	60	4	-1	ZUKAUF_N	-0.85	0	0	1	ARABLE	0	false	-	false	-	-	-0.85
	61	4	-1	ZUKAUF_P	-0.8	0	0	1	ARABLE	0	false	-	false	-	-	-0.8
	62	4	-1	ZUKAUF_K	-0.65	0	0	1	ARABLE	0	false	-	false	-	-	-0.65
	63	4	-1	ZUKAUF_PSM	-187.5	0	0	1	ARABLE	0	false	-	false	-	-	-187.5
	64	4	-1	ENERGY_VAR_BUY	-18.8	0	0	1	ARABLE	0	false	-	false	-	-	-18.8
	65	4	-1	ENERGY_FIX_BUY	-92.6	0	0	1	ARABLE	0	false	-	false	-	-	-92.6
	66	4	-1	SELL_FEM_DAIRY_CALF	110	0	0	1	GRASSLAND	0	false	-	false	-	-	110
	67	4	-1	BUY_HEIFER_DAIRY	-1640	0	0	1	GRASSLAND	0	false	-	false	-	-	-1640
	68	4	-1	SELL_FEM_SUCKLER_CALF	460	0	0	1	GRASSLAND	0	false	-	false	-	-	460
	69	4	-1	BUY_FEM_SUCKLER_HEIFER	-1600	0	0	1	GRASSLAND	0	false	-	false	-	-	-1600
	70	4	-1	GREENING_JA_GROESSER_15HA	0	0	0	1	NON	0	false	-	false	-	-	0
	71	4	-1	GREENING_NEIN_KLEINER_15HA	0	0	0	1	NON	0	false	-	false	-	-	0
	72	4	-1	GREENING_JA_ANTEIL_GL_75	0	0	0	1	NON	0	false	-	false	-	-	0
	73	4	-1	GREENING_NEIN_ANTEIL_GL_75	0	0	0	1	NON	0	false	-	false	-	-	0
	74	4	-1	LEASE_QUOTA	0	0	0	1	GRASSLAND	0	false	-	false	-	-	0
	75	4	-1	LET_QUOTA	0	0	0	1	GRASSLAND	0	false	-	false	-	-	0
	76	4	-1	BASIC_PREM_UNMOD	0	0	0	1	NON	0	false	-	false	-	-	0
	77	4	-1	TOTAL_PREM_MODULATED	1	0	0	1	NON	0	false	-	false	-	-	1
	78	4	-1	PREMIUM_AWU	0	0	0	1	NON	0	false	-	false	-	-	0
	79	4	-1	TRANCH_1	0	0	0	1	NON	0	false	-	false	-	-	0
	80	4	-1	TRANCH_2	0	0	0	1	NON	0	false	-	false	-	-	0
	81	4	-1	TRANCH_3	0	0	0	1	NON	0	false	-	false	-	-	0
	82	4	-1	TRANCH_4	0	0	0	1	NON	0	false	-	false	-	-	0
	83	4	-1	TRANCH_5	0	0	0	1	NON	0	false	-	false	-	-	0
	84	4	-1	FIRST_30_HECTARE	50	0	0	1	NON	0	false	-	false	-	-	50
	85	4	-1	NEXT_16_HECTARE	30	0	0	1	NON	0	false	-	false	-	-	30
	86	4	-1	EXCESS_LU	0	0	0	1	PIG/POULTRY	0	false	-	false	-	-	0
	87	4	-1	GREENING	1	0	0	1	NON	0	false	-	false	-	-	1
	88	4	-1	PAY_YOUNG_FARMER	1	0	0	1	NON	0	false	-	false	-	-	1
	89	4	-1	MAX_PAY_YOUNG_FARMER	0	0	0	1	NON	0	false	-	false	-	-	0
	90	4	-1	OLDER_FARMER	0	0	0	1	NON	0	false	-	false	-	-	0
	91	4	-1	YEARS	0	0	0	1	NON	0	false	-	false	-	-	0
	92	4	-1	DISINV_SOWS	0	0	0	1	NON	0	false	-	false	-	-	0
	93	4	-1	DISINV_PIGS	0	0	0	1	NON	0	false	-	false	-	-	0
	94	4	-1	DISINV_BEEF	0	0	0	1	NON	0	false	-	false	-	-	0
	95	4	-1	DISINV_SUCKLER	0	0	0	1	NON	0	false	-	false	-	-	0
	96	4	-1	DISINV_DAIRY	0	0	0	1	NON	0	false	-	false	-	-	0
	97	4	-1	DISINV_VEALER	0	0	0	1	NON	0	false	-	false	-	-	0
