#	generated from ===> Text_Gss_EFA_20151106_with new land reallocation																						
#	--------- PRODUCTS --------																						
																							
				premiumName	coupled_premium	###	Name in MIP-Matrix																
																							
!	id	type	group	name	price	varCost	priceFlex	changeRate	producedByFarmType	LUperPlace	premium	initPrem	priceSupp	refPrem	Xyears	grossMargin							
																							
	0	0	-1	ST_BORROW_CAP	-0.045	0	0	1	NON	0	false	-	false	-	-	-0.045							
	1	1	-1	EC_INTEREST	0.03	0	0	1	NON	0	false	-	false	-	-	0.03							
	2	2	-1	V_HIRED_LABOUR_H	-192	0	0	1.005	NON	0	false	-	false	-	-	-192							
	3	3	-1	V_OFF_FARM_LAB	144	0	0	1.005	NON	0	false	-	false	-	-	144							
	4	4	-1	AGRI_SERVICE	0	0	0	1	NON	0	false	-	false	-	-	0							
	5	4	0	W_WHEAT_HGH	0	699	0	1	ARABLE	0	true	3000	true	2820	1	-699							
	6	4	0	OTH_GRAIN_HGH	0	522	0	1	ARABLE	0	true	3000	true	2820	1	-522							
	7	4	0	OTH_GRAIN_LOW	0	522	0	1	ARABLE	0	true	3000	false	2820	1	-522							
	8	4	0	RAPE_HGH	0	1582	0	1	ARABLE	0	true	3000	false	2820	1	-1582							
	9	4	0	RAPE_LOW	0	1500	0	1	ARABLE	0	true	3000	false	2820	1	-1500							
	10	4	0	SUGAR_BEET_HGH	0	4032	0	1	ARABLE	0	true	4350	false	4089	1	-4032							
	11	4	0	GRASS_SILAGE_HGH	0	19120	0	1	GRASSLAND	0	true	3000	false	2820	1	-19120							
	12	4	0	GRASS_SILAGE_LOW	0	1402	0	1	GRASSLAND	0	true	3000	false	2820	1	-1402							
	13	4	0	ARABLE_PASTURE_LOW	0	120	0	1	GRASSLAND	0	true	3000	false	2820	1	-120							
	14	4	0	SEMINAT_GRAZING	0	0	0	1	GRASSLAND	0	true	1500	false	1410	1	0							
	15	4	0	SET_ASIDE_HGH	0	220.0	0	1	ARABLE	0	true	3000	false	2820	1	-220.0							
	16	4	0	SET_ASIDE_LOW	0	220.0	0	1	ARABLE	0	true	3000	false	2820	1	-220.0							
	17	4	1	BULLOCK_DAIRY	3367	434	0	1	GRASSLAND	0.6	true	942	true	942	2	2933							
	18	4	1	BEEF_CATTLE	8026	1596	0	1	GRASSLAND	0.4	true	1327	true	1327	2	6430							
	19	4	1	BULL_SUCKLER	9449	781	0	1	GRASSLAND	0.6	true	1327	true	1327	2	8668							
	20	4	2	HEIFER_SUCKLER	0	531	0	1	GRASSLAND	0.6	false	-	true	-	-	-531							
	21	4	3	HEIFER_DAIRY	0	1869	0	1	GRASSLAND	0.6	false	-	true	-	-	-1869							
	22	4	4	SUCKLER_COWS	1659	676	0	1	GRASSLAND	0.8	false	-	true	-	-	982							
	23	4	5	DAIRY_COWS	33065	11286	0	1	GRASSLAND	1	false	-	true	-	-	21779							
	24	4	6	SHEEP	1778	777	0	1	GRASSLAND	0.1	false	-	true	-	-	1001							
	25	4	7	FATTENING_PIGS	4029	1704	0	1	PIG/POULTRY	0.5	false	-	false	-	-	2325							
	26	4	8	SOWS	12283	1930	0	1	PIG/POULTRY	0.3	false	-	false	-	-	10353							
	27	4	-1	DAIRY_CALF_SELL	1500	0	0	1	GRASSLAND	0	false	-	false	-	-	1500							
	28	4	-1	DAIRY_CALF_BUY	-1678	0	0	1	GRASSLAND	0	false	-	false	-	-	-1678							
	29	4	-1	SUCKLER_CALF_SELL	0	0	0	1	GRASSLAND	0	false	-	false	-	-	0							
	30	4	-1	SUCKLER_CALF_BUY	0	0	0	1	GRASSLAND	0	false	-	false	-	-	0							
	31	4	-1	LEASE_QUOTA	-0.4500	0	0	1	GRASSLAND	0	false	-	false	-	-	-0.4500							
	32	4	-1	LET_QUOTA	0.0000	0	0	1	GRASSLAND	0	false	-	false	-	-	0							
	33	4	-1	MANURE_BUY	0	0	0	1	NON	0	false	-	false	-	-	0							
	34	4	-1	MANURE_SELL	0	0	0	1	NON	0	false	-	false	-	-	0							
	35	4	-1	GRAIN_BUY	-1.25	0	0	1	GRASSLAND	0	false	-	false	-	-	-1.25							
	36	4	-1	OTH_GRAIN_SELL	1.19	0	0	1	ARABLE	0	false	-	false	-	-	1.19							
	37	4	-1	W_WHEAT_SELL	1.54	0	0	1	ARABLE	0	false	-	false	-	-	1.54							
	38	4	-1	RAPE_SELL	3.25	0	0	1	ARABLE	0	false	-	false	-	-	3.25							
	39	4	-1	SUGAR_BEET_SELL	0.66	0	0	1	ARABLE	0	false	-	false	-	-	0.66							
	40	4	-1	N_FERT_BUY	-10.51	0	0	1	ARABLE	0	false	-	false	-	-	-10.51							
	41	4	-1	P_FERT_BUY	-19	0	0	1	ARABLE	0	false	-	false	-	-	-19.48							
	42	4	-1	K_FERT_BUY	-10	0	0	1	ARABLE	0	false	-	false	-	-	-10.26							
	43	4	-1	PESTICIDES_BUY	-674	0	0	1	ARABLE	0	false	-	false	-	-	-674.00							
	44	4	-1	ENERGY_var_BUY	-9.8	0	0	1	NON	0	false	-	false	-	-	-9.80							
	45	4	-1	ENERGY_fix_BUY	-9.8	0	0	1	NON	0	false	-	false	-	-	-9.80							
	46	4	-1	PROTEIN_SELL	0	0	0	1	ARABLE	0	false	-	false	-	-	0.00							
	47	4	-1	WILLOW_SELL	0	0	0	1	ARABLE	0	false	-	false	-	-	0.00							
	48	4	-1	ENVIRO_PAY	1	0	0	1	NON	0	false	-	false	-	-	1							
	49	4	-1	COUPLED_PREM_UNMOD	0	0	0	1	NON	0	false	-	false	-	-	0							
	50	4	-1	DECOUPLED_PREM_UNMOD	0	0	0	1	NON	0	false	-	false	-	-	0							
	51	4	-1	TOTAL_PREM_MODULATED	1	0	0	1	NON	0	false	-	false	-	-	1							
	52	4	-1	Premium_AWU	0	0	0	1	NON	0	false	-	false	-	-	0							
	53	4	-1	TRANCH_1	0	0	0	1	NON	0	false	-	false	-	-	0							
	54	4	-1	TRANCH_2	0	0	0	1	NON	0	false	-	false	-	-	0							
	55	4	-1	TRANCH_3	0	0	0	1	NON	0	false	-	false	-	-	0							
	56	4	-1	TRANCH_4	0	0	0	1	NON	0	false	-	false	-	-	0							
	57	4	-1	TRANCH_5	0	0	0	1	NON	0	false	-	false	-	-	0							
	58	4	-1	GREENING	1	0	0	1	NON	0	false	-	false	-	-	1							
	59	4	-1	PAY_YOUNG_FARMER	1	0	0	1	NON	0	false	-	false	-	-	1							
	60	4	-1	MAX_PAY_YOUNG_FARMER	0	0	0	1	NON	0	false	-	false	-	-	0							
	61	4	-1	OLDER_FARMER	0	0	0	1	NON	0	false	-	false	-	-	0							
	62	4	-1	YEARS	0	0	0	1	NON	0	false	-	false	-	-	0							
	63	4	0	PROTEIN_CROP_HIGH	3772	979	0	1	ARABLE	0	true	3000	false	2820	1	2793							
	64	4	0	PROTEIN_CROP_LOW	2255	481	0	1	ARABLE	0	true	3000	false	2820	1	1774							
	65	4	0	FLOWER_STRIP_HIGH	0	437	0	1	ARABLE	0	false	-	false	-	-	-437							
	66	4	0	FLOWER_STRIP_LOW	0	437	0	1	ARABLE	0	false	-	false	-	-	-437							
	67	4	0	CATCH_CROP	0	503.783	0	1	ARABLE	0	false	-	false	-	-	-504							
	68	4	0	UNDERSOWN_IN_BARLEY	0	273.3	0	1	ARABLE	0	false	-	false	-	-	-273							
	69	4	0	WILLOW_HIGH	1488	5504	0	1	ARABLE	0	true	3000	false	2820	1	-4016							
	70	4	0	WILLOW_LOW	2674	5050	0	1	ARABLE	0	true	3000	false	2820	1	-2376							
	71	4	0	UNCULTIVATED_FIELD_EDGES_HIGH	0	226	0	1	ARABLE	0	true	0	false	0	1	-226							
	72	4	0	UNCULTIVATED_FIELD_EDGES_LOW	0	226	0	1	ARABLE	0	true	0	false	0	1	-226							
	73	4	-1	GREENING_YES_15ha	0	0	0	1	NON	0	false	-	false	-	-	0							
	74	4	-1	GREENING_NO_15ha	0	0	0	1	NON	0	false	-	false	-	-	0							
	75	4	-1	GREENING_YES_75_GL	0	0	0	1	NON	0	false	-	false	-	-	0							
	76	4	-1	GREENING_NO_75_GL	0	0	0	1	NON	0	false	-	false	-	-	0							
	77	4	-1	DISINV_BEEF	0	0	0	1	NON	0	false	-	false	-	-	0							
	78	4	-1	DISINV_SUCKLER	0	0	0	1	NON	0	false	-	false	-	-	0							
	79	4	-1	DISINV_DAIRY	0	0	0	1	NON	0	false	-	false	-	-	0							
	80	4	-1	DISINV_LAMB	0	0	0	1	NON	0	false	-	false	-	-	0							
	81	4	-1	DISINV_FATPIG	0	0	0	1	NON	0	false	-	false	-	-	0							
	82	4	-1	DISINV_SOWS	0	0	0	1	NON	0	false	-	false	-	-	0							
	83	4	-1	Switch_dairy_to_suckler	0	0	0	1	NON	0	false	-	false	-	-	0							
